%YAML 1.1
%TAG !u! tag:unity3d.com,2011:
--- !u!21 &2100000
Material:
  serializedVersion: 6
  m_ObjectHideFlags: 0
  m_CorrespondingSourceObject: {fileID: 0}
  m_PrefabInstance: {fileID: 0}
  m_PrefabAsset: {fileID: 0}
  m_Name: AgainstSVG 2
  m_Shader: {fileID: 4800000, guid: 2892f4e2fafffb644a090fedb1a6ae3e, type: 3}
  m_ShaderKeywords: UNITY_UI_ALPHACLIP
  m_LightmapFlags: 4
  m_EnableInstancingVariants: 0
  m_DoubleSidedGI: 0
  m_CustomRenderQueue: -1
  stringTagMap: {}
  disabledShaderPasses: []
  m_SavedProperties:
    serializedVersion: 3
    m_TexEnvs:
    - _FaceTex:
        m_Texture: {fileID: 0}
        m_Scale: {x: 1, y: 1}
        m_Offset: {x: 0, y: 0}
    - _MainTex:
        m_Texture: {fileID: 2699069846745748992, guid: 54b1ec96bfa2a1f4ea5fbd541a857d89,
          type: 2}
        m_Scale: {x: 1, y: 1}
        m_Offset: {x: 0, y: 0}
    - _NewTex:
        m_Texture: {fileID: 2800000, guid: 7094507e49c63fc498167137ee1d6cb4, type: 3}
        m_Scale: {x: 1, y: 1}
        m_Offset: {x: 0, y: 0}
    m_Floats:
    - _ColorMask: 100
    - _CullMode: 0
    - _Cutoff: 0.3
    - _IsAnimating: 0
    - _MaskSoftnessX: 0
    - _MaskSoftnessY: 0
    - _Stencil: 0
    - _StencilComp: 0
    - _StencilOp: 0
    - _StencilReadMask: 255
    - _StencilWriteMask: 255
    - _UseUIAlphaClip: 1
    - _VertexOffsetX: 0
    - _VertexOffsetY: 0
    m_Colors:
    - _ClipRect: {r: -32767, g: -32767, b: 32767, a: 32767}
    - _Color: {r: 1, g: 0.9669811, b: 0.9669811, a: 1}
    - _FaceColor: {r: 1, g: 1, b: 1, a: 1}
